<?xml version="1.0" encoding="utf-8"?>
<!-- Generator: Adobe Illustrator 16.0.0, SVG Export Plug-In . SVG Version: 6.00 Build 0)  -->
<!DOCTYPE svg PUBLIC "-//W3C//DTD SVG 1.1//EN" "http://www.w3.org/Graphics/SVG/1.1/DTD/svg11.dtd">
<svg version="1.1" id="Layer_1" xmlns="http://www.w3.org/2000/svg" xmlns:xlink="http://www.w3.org/1999/xlink" x="0px" y="0px"
	 width="54px" height="40px" viewBox="0 0 54 40" enable-background="new 0 0 54 40" xml:space="preserve">
<g>
	<defs>
		<rect id="SVGID_1_" width="54" height="40"/>
	</defs>
	<clipPath id="SVGID_2_">
		<use xlink:href="#SVGID_1_"  overflow="visible"/>
	</clipPath>
	<path clip-path="url(#SVGID_2_)" d="M54,19.995c-0.028-0.715-0.322-1.541-0.812-2.063l-16-17c-1.086-0.975-3.164-1.377-4.375-0.25
		c-1.194,1.109-1.159,3.261,0.029,4.375l11.25,11.938H3c-1.657,0-3,1.343-3,3s1.343,3,3,3h41.093l-11.25,11.938
		c-1.022,1.026-1.212,3.253-0.029,4.375c1.181,1.122,3.335,0.765,4.375-0.25l16-17C53.735,21.476,54.002,20.793,54,19.995"/>
</g>
</svg>
