<?xml version="1.0" encoding="utf-8"?>
<!-- Generator: Adobe Illustrator 16.0.0, SVG Export Plug-In . SVG Version: 6.00 Build 0)  -->
<!DOCTYPE svg PUBLIC "-//W3C//DTD SVG 1.1//EN" "http://www.w3.org/Graphics/SVG/1.1/DTD/svg11.dtd">
<svg id="Layer_1"viewBox="0 0 74 74">
<g>
	<defs>
		<rect id="SVGID_1_" width="74" height="74"/>
	</defs>
	<path clip-path="url(#SVGID_2_)" d="M44.9,42.1C46.8,39.6,48,36.4,48,33c0-8.3-6.7-15-15-15s-15,6.7-15,15s6.7,15,15,15
		c3.4,0,6.6-1.2,9.1-3.1l10.5,10.5C53,55.8,53.5,56,54,56c0.4,0,0.7-0.1,1-0.3h0.1l0.301-0.3c0.8-0.801,0.8-2,0-2.801L44.9,42.1z
		 M22.1,33c0-6,4.9-10.9,10.9-10.9S43.9,27,43.9,33S39,43.9,33,43.9S22.1,39,22.1,33 M37,0C16.6,0,0,16.6,0,37c0,20.4,16.6,37,37,37
		c20.4,0,37-16.6,37-37C74,16.6,57.4,0,37,0 M37,70C18.8,70,4,55.2,4,37S18.8,4,37,4s33,14.8,33,33S55.2,70,37,70"/>
</g>
</svg>
